Lecture 3: Data Manipulation with dplyr – STAT545
…
Tibbles

As mentioned in Lecture 1A, data frames are useful tools for storing data. You can think of it as a spreadsheet of information, but in R. A tibble is a modern version of a basic data frame. To use tibbles, we first install the tibble package (if we haven’t already) and load it into R by:

# install.packages("tibble") # remove comment if not already installed
library(tibble)

Tibbles typically said to be more user friendly than standard R dataframes, and are easily used with tidyverse functions. More on that in a bit!

We can either load in pre-existing data frames (like from a .csv file or an R package), or create a tibble manually using the tibble() function. For example, we could use

tibble(x = letters)

# A tibble: 26 × 1
   x    
   <chr>
 1 a    
 2 b    
 3 c    
 4 d    
 5 e    
 6 f    
 7 g    
 8 h    
 9 i    
10 j    
# ℹ 16 more rows
…
We can see that the tibble can store different data types (here we have both numeric data (“dbl” is short for double) and character data (“chr” is short for character).

We can also change an R data frame to a tibble. For example, the mtcars data set is available in the datasets package in R as a dataframe. We can load it as a tibble using:

library(datasets)
tibble(mtcars)

# A tibble: 32 × 11
     mpg   cyl  disp    hp  drat    wt  qsec    vs    am  gear  carb
   <dbl> <dbl> <dbl> <dbl> <dbl> <dbl> <dbl> <dbl> <dbl> <dbl> <dbl>
 1  21       6 160     110  3.9  2.62  16.46     0     1     4     4
 2  21       6 160     110  3.9  2.875 17.02     0     1     4     4
 3  22.8     4 108      93  3.85 2.32  18.61     1     1     4     1
 4  21.4     6 258     110  3.08 3.215 19.44     1     0     3     1
 5  18.7     8 360     175  3.15 3.44  17.02     0     0     3     2
 6  18.1     6 225     105  2.76 3.46  20.22     1     0     3     1
 7  14.3     8 360     245  3.21 3.57  15.84     0     0     3     4
 8  24.4     4 146.7    62  3.69 3.19  20        1     0     4     2
 9  22.8     4 140.8    95  3.92 3.15  22.9      1     0     4     2
10  19.2     6 167.6   123  3.92 3.44  18.3      1     0     4     4
# ℹ 22 more rows
…
