Lecture 5: Tidy Data – STAT545
…
Once we’ve sorted that out, the variables fall into place: country, year, gender, age range, and case count. Values for gender and age range are currently located in the column names of who_demo, and values for case count are currently spread across multiple columns. So to tidy who_demo up, we need to use pivot_longer() to move the info in the columns into new rows.

Conceptually, this is pretty similar to the last example: we want to use the information in m_014, m_1524, etc. to create new rows. So we should put those column names into the cols argument. But now, we want the information in their column names - the gender and age - to go into two new columns: gender and age. We can do this by specifying two column names in the names_to argument: gender and age.

But how is pivot_longer() to know which part of the column name m_014 corresponds to the gender, and which part corresponds to the age? You need to tell it that the pieces of information are separated by the “_” character using the names_sep argument.

Finally, we can specify the name of the new column we want the values in the m_014, m_1524, etc. columns to go into with the values_to argument.

who_demo %>% pivot_longer(cols = !(country:year), # all columns aside from country to year
                          names_to = c("gender", "age"), #new columns named age and gender
                          names_sep = "_",#current gender and age are a single variable separated by _
                          values_to = "cases") #use the cases column for the values

# A tibble: 84 × 5
   country      year gender age   cases
   <chr>       <dbl> <chr>  <chr> <dbl>
 1 Afghanistan  1999 m      014       8
 2 Afghanistan  1999 m      1524     55
 3 Afghanistan  1999 m      2534     55
 4 Afghanistan  1999 m      3544     47
 5 Afghanistan  1999 m      4554     34
 6 Afghanistan  1999 m      5564     21
 7 Afghanistan  1999 m      65        8
 8 Afghanistan  1999 f      014      25
 9 Afghanistan  1999 f      1524    139
10 Afghanistan  1999 f      2534    160
# ℹ 74 more rows
…
